{
 "allow_rename": 1,
 "autoname": "Group-AREA-LANG-.#####",
 "creation": "2021-05-04 13:01:33.373725",
 "doctype": "DocType",
 "editable_grid": 1,
 "engine": "InnoDB",
 "field_order": [
  "language"
 ],
 "fields": [
  {
   "fieldname": "language",
   "fieldtype": "Link",
   "in_list_view": 1,
   "label": "Language",
   "options": "Language",
   "reqd": 1
  }
 ],
 "modified": "2021-06-12 14:01:54.179854",
 "modified_by": "Administrator",
 "module": "Athar",
 "name": "Translate Map",
 "owner": "Administrator",
 "permissions": [
  {
   "create": 1,
   "delete": 1,
   "email": 1,
   "export": 1,
   "print": 1,
   "read": 1,
   "report": 1,
   "role": "System Manager",
   "share": 1,
   "write": 1
  }
 ],
 "sort_field": "modified",
 "sort_order": "DESC",
 "track_changes": 1
}