{
 "autoname": "field:damage",
 "creation": "2021-07-15 13:10:03.628182",
 "doctype": "DocType",
 "editable_grid": 1,
 "engine": "InnoDB",
 "field_order": [
  "damage"
 ],
 "fields": [
  {
   "fieldname": "damage",
   "fieldtype": "Data",
   "label": "Damage In The Material",
   "unique": 1
  }
 ],
 "modified": "2021-07-29 11:32:04.100254",
 "modified_by": "Administrator",
 "module": "Pictures Archive",
 "name": "Damage In The Material",
 "owner": "Administrator",
 "permissions": [
  {
   "create": 1,
   "delete": 1,
   "email": 1,
   "export": 1,
   "print": 1,
   "read": 1,
   "report": 1,
   "role": "System Manager",
   "share": 1,
   "write": 1
  }
 ],
 "quick_entry": 1,
 "sort_field": "modified",
 "sort_order": "DESC",
 "track_changes": 1
}